…
# Set the seed so we get the same simulated values when we re-knit.
set.seed(45)

# Simulate the data and store as data frame (tibble).
data <- tibble(height = rnorm(N, 10, 2)) |> 
  mutate(leg_prop = runif(N, 0.4, 0.5)) |> 
  mutate(
    leg_left = leg_prop * height + rnorm(N, 0, 0.02),
    leg_right = leg_prop * height + rnorm(N, 0, 0.02)
  )

data
```

    # A tibble: 100 × 4
       height leg_prop leg_left leg_right
        <dbl>    <dbl>    <dbl>     <dbl>
     1  10.7     0.403     4.32      4.31
     2   8.59    0.432     3.72      3.72
     3   9.24    0.486     4.49      4.49
     4   8.51    0.441     3.78      3.74
     5   8.20    0.487     3.99      4.00
     6   9.33    0.418     3.85      3.91
     7   9.00    0.478     4.32      4.29
     8   9.65    0.411     3.93      3.97
     9  13.6     0.426     5.84      5.80
    10   9.54    0.435     4.14      4.15
    # … with 90 more rows
…
