…
### Model Calibration

Before we calibrate the model, let’s consider the data.

``` r
# Load the data.
load(here::here("Projects", "Data", "purchase_intent.RData"))

purchase_intent
```

    ## # A tibble: 700 x 4
    ##    intent     g brand price
    ##     <dbl> <int> <int> <dbl>
    ##  1   4.72     2     5  25.3
    ##  2   1.35     3     5  20.1
    ##  3   2.01     3     2  14.0
    ##  4   1.74     1     4  24.3
    ##  5   3.53     3     4  25.4
    ##  6   4.46     2     3  24.1
    ##  7   4.69     2     4  13.8
    ##  8   4.28     2     2  16.0
    ##  9   2.55     3     4  16.5
    ## 10   3.29     2     4  21.4
    ## # … with 690 more rows
…
